{
  "page": 1,
  "total_results": 10000,
  "total_pages": 500,
  "results": [
    {
      "popularity": 2.635,
      "vote_count": 0,
      "video": false,
      "poster_path": null,
      "id": 627012,
      "adult": false,
      "backdrop_path": null,
      "original_language": "en",
      "original_title": "Merrily We Roll Along",
      "genre_ids": [
        10402
      ],
      "title": "Merrily We Roll Along",
      "vote_average": 0,
      "overview": "Merrily We Roll Along follows Franklin Shepard, a talented Broadway composer who abandons his theater career in New York and all his friends in order to produce movies in Los Angeles. The musical begins at the height of his Hollywood fame and moves backwards in time, showing snapshots of the most important moments in Frank’s life that shaped the man he is today.",
      "release_date": "2040-01-01"
    },
    {
      "popularity": 5.63,
      "vote_count": 0,
      "video": false,
      "poster_path": null,
      "id": 393209,
      "adult": false,
      "backdrop_path": null,
      "original_language": "en",
      "original_title": "Avatar 5",
      "genre_ids": [
        28,
        12,
        14,
        878
      ],
      "title": "Avatar 5",
      "vote_average": 0,
      "overview": "Plot unknown.",
      "release_date": "2027-12-15"
    },
    {
      "popularity": 0.6,
      "vote_count": 0,
      "video": false,
      "poster_path": "/adFRjMiYYXrekiLe0XAoZKmhD9d.jpg",
      "id": 519258,
      "adult": false,
      "backdrop_path": null,
      "original_language": "hu",
      "original_title": "Fekete Vér",
      "genre_ids": [
        18,
        53
      ],
      "title": "Black Blood",
      "vote_average": 0,
      "overview": "The Black Blood movie covers about 20 years of history and is about the oiling in the 1990s and the mafia showdown. About the era in which so many people died innocently. From the era where the government and mafia were separated by a hairpin. Everyone who had some capital started to oil because at the time it was the most profitable industry. The protagonist of our movie did this too. But because of his envy, jealousy, and unswerving domination, he wanted much more for himself. If someone was richer than he wanted to destroy it immediately.",
      "release_date": "2026-08-31"
    },
    {
      "popularity": 7.846,
      "vote_count": 0,
      "video": false,
      "poster_path": "/h2sVHCWDLpKEZZideFKufOUsBkd.jpg",
      "id": 216527,
      "adult": false,
      "backdrop_path": null,
      "original_language": "en",
      "original_title": "Avatar 4",
      "genre_ids": [
        28,
        12,
        14,
        878
      ],
      "title": "Avatar 4",
      "vote_average": 0,
      "overview": "",
      "release_date": "2025-12-17"
    },
    {
      "popularity": 0.6,
      "id": 531229,
      "video": false,
      "vote_count": 1,
      "vote_average": 0,
      "title": "Son Göktürk",
      "release_date": "2025-01-01",
      "original_language": "tr",
      "original_title": "Son Göktürk",
      "genre_ids": [],
      "backdrop_path": "/yZfia37VeZqqoxzq5gKgkTKWbRc.jpg",
      "adult": false,
      "overview": "",
      "poster_path": "/iuk8tKnme2qjFB0wHTaCqJbGuhf.jpg"
    },
    {
      "popularity": 5.45,
      "vote_count": 6,
      "video": false,
      "poster_path": "/how9ENsi7XCYvF6ncaXmIAoNXn5.jpg",
      "id": 422642,
      "adult": false,
      "backdrop_path": null,
      "original_language": "en",
      "original_title": "Fantastic Beasts 5",
      "genre_ids": [
        12,
        14,
        10751
      ],
      "title": "Fantastic Beasts 5",
      "vote_average": 0,
      "overview": "The fifth installment of the 'Fantastic Beasts and Where to Find Them' series which follows the adventures of Newt Scamander.",
      "release_date": "2024-12-31"
    },
    {
      "popularity": 9.765,
      "vote_count": 0,
      "video": false,
      "poster_path": "/h2sVHCWDLpKEZZideFKufOUsBkd.jpg",
      "id": 83533,
      "adult": false,
      "backdrop_path": null,
      "original_language": "en",
      "original_title": "Avatar 3",
      "genre_ids": [
        28,
        12,
        18,
        14,
        878
      ],
      "title": "Avatar 3",
      "vote_average": 0,
      "overview": "",
      "release_date": "2023-12-20"
    },
    {
      "popularity": 14.155,
      "id": 447365,
      "video": false,
      "vote_count": 0,
      "vote_average": 0,
      "title": "Guardians of the Galaxy Vol. 3",
      "release_date": "2023-02-17",
      "original_language": "en",
      "original_title": "Guardians of the Galaxy Vol. 3",
      "genre_ids": [
        28,
        12,
        878,
        35
      ],
      "backdrop_path": "/jRSAkKG9QSu6Nc1zvI3ejmgLshe.jpg",
      "adult": false,
      "overview": "The third film based on Marvel's Guardians of the Galaxy.",
      "poster_path": "/6rsLfXqlZSXa6zLfbofHVhXs8Yr.jpg"
    },
    {
      "popularity": 5.282,
      "id": 508957,
      "video": false,
      "vote_count": 0,
      "vote_average": 0,
      "title": "Untitled Disney Live Action Project",
      "release_date": "2023-02-17",
      "original_language": "en",
      "original_title": "Untitled Disney Live Action Project",
      "genre_ids": [
        10751
      ],
      "backdrop_path": null,
      "adult": false,
      "overview": "Plot unknown.",
      "poster_path": null
    },
    {
      "popularity": 0.858,
      "vote_count": 0,
      "video": false,
      "poster_path": null,
      "id": 631842,
      "adult": false,
      "backdrop_path": null,
      "original_language": "en",
      "original_title": "Untitled M. Night Shyamalan 2023 Thriller",
      "genre_ids": [
        53
      ],
      "title": "Untitled M. Night Shyamalan 2023 Thriller",
      "vote_average": 0,
      "overview": "Plot unknown.",
      "release_date": "2023-02-17"
    },
    {
      "popularity": 0.903,
      "id": 381344,
      "video": false,
      "vote_count": 0,
      "vote_average": 0,
      "title": "Uru in Blue",
      "release_date": "2022-12-31",
      "original_language": "ja",
      "original_title": "Aoki uru",
      "genre_ids": [
        10752,
        878,
        16
      ],
      "backdrop_path": null,
      "adult": false,
      "overview": "The new generation of the Royal Space Force and their endeavors to make it to space.",
      "poster_path": "/iXJOUf644gX42K2PNuFJnlThC6U.jpg"
    },
    {
      "popularity": 3.45,
      "vote_count": 0,
      "video": false,
      "poster_path": null,
      "id": 404594,
      "adult": false,
      "backdrop_path": null,
      "original_language": "en",
      "original_title": "The Avenging Silence",
      "genre_ids": [
        28,
        53
      ],
      "title": "The Avenging Silence",
      "vote_average": 0,
      "overview": "A former European spy accepts a confidential mission from a Japanese businessman exiled to France, to take down the head of the most treacherous Yakuza boss in Japan.",
      "release_date": "2022-12-31"
    },
    {
      "popularity": 3.913,
      "vote_count": 0,
      "video": false,
      "poster_path": null,
      "id": 425902,
      "adult": false,
      "backdrop_path": null,
      "original_language": "en",
      "original_title": "Luna Park",
      "genre_ids": [
        28,
        12,
        878,
        53
      ],
      "title": "Luna Park",
      "vote_average": 0,
      "overview": "A group of renegade space workers venture to the moon to steal an energy source.",
      "release_date": "2022-12-31"
    },
    {
      "popularity": 3.978,
      "vote_count": 0,
      "video": false,
      "poster_path": "/20SyaU897ylhX4lUPgIoTRc04bO.jpg",
      "id": 429451,
      "adult": false,
      "backdrop_path": "/efZCHicZnFUELzxawrMGVKGqyMn.jpg",
      "original_language": "en",
      "original_title": "Shackleton",
      "genre_ids": [
        12,
        18
      ],
      "title": "Shackleton",
      "vote_average": 0,
      "overview": "Ernest Shackleton led three British expeditions to the Antarctic, but the polar explorer is best remembered for how he handled adversity. His ship Endurance was crushed by ice floes and he managed to keep everyone alive in a harrowing journey to safety in sub zero temperatures.",
      "release_date": "2022-12-31"
    },
    {
      "popularity": 4.001,
      "vote_count": 0,
      "video": false,
      "poster_path": null,
      "id": 447273,
      "adult": false,
      "backdrop_path": null,
      "original_language": "en",
      "original_title": "Snow White and the Seven Dwarfs",
      "genre_ids": [
        18,
        14,
        10749,
        10751
      ],
      "title": "Snow White and the Seven Dwarfs",
      "vote_average": 0,
      "overview": "A live-action adaptation of the classic fairy tale about a beautiful young princess who, while being stalked by a jealous Queen, seeks shelter at the home of seven dwarfs in the German countryside.",
      "release_date": "2022-12-31"
    },
    {
      "popularity": 1.4,
      "vote_count": 0,
      "video": false,
      "poster_path": null,
      "id": 458055,
      "adult": false,
      "backdrop_path": null,
      "original_language": "en",
      "original_title": "Alien Nation",
      "genre_ids": [
        878
      ],
      "title": "Alien Nation",
      "vote_average": 0,
      "overview": "A remake off  the 1988 science fiction thriller. An alien race arrives on Earth and tries to co-exist with humans, despite the restrictions that have been placed on them to live in segregation.",
      "release_date": "2022-12-31"
    },
    {
      "popularity": 0.957,
      "vote_count": 0,
      "video": false,
      "poster_path": null,
      "id": 467910,
      "adult": false,
      "backdrop_path": null,
      "original_language": "en",
      "original_title": "Witness for the Prosecution",
      "genre_ids": [
        80,
        18,
        9648
      ],
      "title": "Witness for the Prosecution",
      "vote_average": 0,
      "overview": "A veteran lawyer must defend a man in what promises to be the most dramatic trial of his career.",
      "release_date": "2022-12-31"
    },
    {
      "popularity": 3.627,
      "vote_count": 0,
      "video": false,
      "poster_path": null,
      "id": 496178,
      "adult": false,
      "backdrop_path": null,
      "original_language": "en",
      "original_title": "1984",
      "genre_ids": [
        18
      ],
      "title": "1984",
      "vote_average": 0,
      "overview": "A man struggles to keep his autonomy under an oppressive regime that monitors his every move.",
      "release_date": "2022-12-31"
    },
    {
      "popularity": 3.689,
      "id": 522958,
      "video": false,
      "vote_count": 0,
      "vote_average": 0,
      "title": "Atomic Blonde 2",
      "release_date": "2022-12-31",
      "original_language": "en",
      "original_title": "Atomic Blonde 2",
      "genre_ids": [
        28,
        9648,
        53
      ],
      "backdrop_path": null,
      "adult": false,
      "overview": "The sequel to Atomic Blonde (2017).",
      "poster_path": null
    },
    {
      "popularity": 0.608,
      "vote_count": 0,
      "video": false,
      "poster_path": null,
      "id": 615127,
      "adult": false,
      "backdrop_path": null,
      "original_language": "en",
      "original_title": "Hello Kitty",
      "genre_ids": [
        16
      ],
      "title": "Hello Kitty",
      "vote_average": 0,
      "overview": "Ploy Unknown.An animated feature film based on the Hello Kitty character.",
      "release_date": "2022-12-31"
    }
  ]
}